CUST-01,21st CENTURY FOOD & PACKAGING LTD,PO BOX 6667,BHANDARI ROAD KURASINI,DAR ES SALAAM,DAR ES SALAAM,Junaid Khan,Default Type,+971 6 7439401 ,,junaid@mudragtllc.com
CUST-02,AFIA INTERNATIONAL COMPANY,P O BOX 30439,INDUSTRIAL CITY PHASE 3STREET 31,JEDDAH,JEDDAH,Junaid Khan,Default Type,+966 12 6089346,,junaid@mudragtllc.com
CUST-03,AJ RESEARCH & PHARMA SDN BHD.,,LEVEL 4 MENARA ATLAN,KUALA LUMPUR,KUALA LUMPUR,ASHAR A ASHARY,Default Type,+60 19 322 4175,,ashar.ashary@ajrph.com
CUST-04,AL - SAFAT FRESH DAIRY COMPANY (K.S.C.C),PO BOX 24025,SAFAT 13101,KUWAIT,KUWAIT,Junaid Khan,Default Type,+971 6 7439401 ,,junaid@mudragtllc.com
CUST-05,AL GHURAIR FOODS. (LLC),PO BOX 16808 ,JEBEL ALI,U.A.E,U.A.E,Junaid Khan,Default Type,+971 6 7439401 ,,junaid@mudragtllc.com
CUST-06,AL-FAKHRY FOR GENERAL TRADING & AGENCIES,PO BOX 2424,MOJAHED ST,SANA'A ,SANA'A ,Junaid Khan,Default Type,+971 6 7439401 ,,junaid@mudragtllc.com
CUST-07,ALLCHEMS CO.LTD,,62/6 BAU CAT ST,HOCHIMINH,HOCHIMINH,Nguyen Thi ,Default Type,+84838494089,,nguyenthi@allchems.com
CUST-09,AMESI KENYA LIMITED,PO BOX 1180,1st FLOOR PILI TRADE CENTRE,KAREN,KAREN,Junaid Khan,Default Type,+971 6 7439401 ,,junaid@mudragtllc.com
CUST-10,AMMAR GAFAR ELYAS EXP. IMP,,MEGA BLD4THFLOOR,ADDIS ABABA,ADDIS ABABA,Amarbasa,Default Type,+251 115 504 860,+251 115 505 0,amarbasaid@yahoo.com
CUST-11,ASTARTA FZC,PO BOX 52311,PLOT 2B-09,SHARJAH,SHARJAH,Junaid Khan,Default Type,+971 6 526 5874,+971 6 526 2877,junaid@mudragtllc.com
CUST-12,AUNG YEIKTHA CO. LTD,,12/F PYITHU STREET (6) WARD; 7 MILE,YANGON,YANGON,U WANNA AUNG,Default Type,+95 9 73214486,,sprinklesmyanmar@gmail.com
CUST-13,BELKON PHARMACY,PO BOX 5812,, ACCRA,ACCRA,,Default Type,,,
CUST-82,BENNIMIX FOOD COMPANY (SL) LTD,44 BATHRUST STREET,,FREETOWN,,Dr. Joseph Zed Bahsoon,Default Type,+232 76 318339,,Zed Bahsoon <marzchem@yahoo.com>
CUST-15,BIO-ORGANICS NUTRIENTS SYSTEM LIMITED,,KN 26 LAGOS-IBADAN EXPRESS WAY IBAFO,LAGOS,LAGOS,,Default Type,+ 234 1 4700189,,
CUST-14,BIOFAR CHEMICALS,,NO.: Z - 67 JINNAH COOPERATIVE SOCIETY,KARACHI ,KARACHI ,,Default Type,,,
CUST-16,CARAWAY PTE LTD,,9 TEMASEK BOULEVARD,SINGAPORE ,SINGAPORE ,RANEE TEO,Default Type,+65  6317 9593,,raneeteo@olamnet.com
CUST-17,CENTRAL PROJECT IMPLEMENTATION BUREAU,,CPIB 'HEALTH-3,TASHKENT,TASHKENT,Sherzod / Bekzhod,Default Type,+998 71 268 17 29,,batakhanov@jpib.uz; satakhanov@jpib.uz
CUST-18,CO-PAKISTAN,PO BOX 3030,PLOT 1DIPLOM.ENCLAVEG-5,ISLAMABAD,ISLAMABAD,Anam,Default Type,,,anam.naeem@wfp.org
CUST-19,CRUST 'N' CRUMB FOOD INGREDIENTS P LTD,,BLOCK NO.32 KINFRA SMALL INDUSTRIES,ERNAKULAM ,ERNAKULAM ,Sini / Sindhu,Default Type,+91 484 2597700,,sini@crustncrumb.com
CUST-20,DANDY CO. LTD,,2ND FLOOR COMMERCIAL CENTER BUILDING,DOHA,DOHA,Gani Ahamed ,Default Type,+974 44422980,,purchase@dandy.com.qa
CUST-21,DELMON PRODUCTS LTD,,YANBU - 41911,,,Dr. Junaid Khan,Default Type,+971 6 7439401 ,,junaid@mudragtllc.com
CUST-22,DEPT OF PAEDIATRICS AND CHILD HEALTH,PO BOX 7072,MULAGO HOSPITAL COLLEGE OF HEALTH,KAMPALA,KAMPALA,,Default Type,,,
CUST-23,DHOFAR CATTLE FEED (S.A.O.G),PO BOX 298,PC 211,SALALAH,SALALAH,SHAREEF ALI,Default Type,+00968 23225381,,shareef@dcfoman.com
CUST-24,DIAMOND BISCUIT LIMITED,,GORAI MIRZAPUR,TANGAIL,TANGAIL,,Default Type,,,
CUST-25,DOCTORS AGRO-VET LTD,,ROAD-15 HOUSE-15 RUPNAGAR,MIRPUR,MIRPUR,,Default Type,,,
CUST-26,DPO (THAILAND) LTD,ROOM NO. 225 22 ND FLOOR,43 THAI CC TOWER SOUTH SATHORN ROAD Y,BANGKOK ,BANGKOK ,Piyaporn Satheinpataratane,Default Type,+668 0219 5551,,piyaporn.s@dpointernational.com
CUST-27,DPO HOUSE,,B2-G LORONG SELANGOR,KUALALUMPUR,KUALALUMPUR,,Default Type,+60 3 41081282,,
CUST-28,DPO INTERNATIONAL LIMITED,,OFFICE B 22ND FLOOR,HONGKONG SAR,HONGKONG SAR,Erica Cheiw,Default Type,+60-3 4108 1282,,erica.c@dpointernational.com
CUST-29,DPO LANKA (PRIVATE ) LIMITED,,NO. 45 BRAYBROOKE STREET,COLOMBO,COLOMBO,Jaanaki,Default Type,+94 11 281 9590,,jaanaki.g@dpointernational.com
CUST-30,DPO LANKA (PRIVATE) LIMITED,,NO. 2 2/1 CHANDRA SILVA MAWATHA,NUGEGODA,NUGEGODA,Jaanaki,Default Type,+94 11 281 9590,,jaanaki.g@dpointernational.com
CUST-31,DPO MALAYSIA SDN. BHD,,DPO HOUSE B2-G LORONG SELANGOR PUSAT,MELAWATI,MELAWATI,Erica Cheiw,Default Type,+60 3 4108 1282,,erica.c@dpointernational.com
CUST-32,DPO PHILIPPINES INC,,UNIT 2308 - 2310 PRESTIGE TOWER F. ORT,PASIG,PASIG,Erica Cheiw,Default Type,+60 3 4108 1282,,erica.c@dpointernational.com
CUST-33,DPO PHILLIPPINES INC,,UNIT 2308/2309/2310 PRESTIGE TOWER,PASIG ,PASIG ,Erica Cheiw,Default Type,+60 3 4108 1282,,erica.c@dpointernational.com
CUST-34,DUCRAY LENOIR LTD,,19 POIVRE STREET,PORT LOUIS,PORT LOUIS,,Default Type,+230 202 7700,,
CUST-35,EAST AFRICAN TIGER BRANDS INDUSTRIES PLC,,ADDIS ABABA,,,,Default Type,+251 11 371 2401,,
CUST-36,ENGAANO MILLERS LTD,,1-7 TOBBACO ROAD,JINJA,JINJA,,Default Type,,,
CUST-37,ENGLISH BISCUIT MANUFACTURERS (PVT) LTD,,PLOT 1-4 SECTOR 23,KARACHI,KARACHI,,Default Type,,,
CUST-38,EQUATORIAL NUT PROCESSORS LTD,PO BOX 2765,3RD PARKLANDS AVENUE,NAIROBI,NAIROBI,,Default Type,+254 772428485,,
CUST-39,ESKE CORPORATION S.A.C,,JR. VICTOR MANTILLA NO. 237-245 SURQUILL,CALLAO,CALLAO,Swapnil Pathak,Default Type,+51 993500651,,swapnil.pathak@eskegroup.com,
CUST-40,EXPORT TRADING COMPANY LIMITED,,BEHIND SECURICOR BUILDING,BLANTYRE,BLANTYRE,,Default Type,,,
CUST-41,FAFFA FOODS S.C,PO BOX 5688,AKAKI KALITY SUB-CITY,ADDIS ABABA,ADDIS ABABA,,Default Type,,,
CUST-42,FAIR HEALTH (PVT) LTD,,NO: 100 BUTHGAMUWA RD RAJAGIRIYA,SRI LANKA,SRI LANKA,Prasanna Weerathunga ,Default Type,+94 77 0025 620,,prasanna@fairhealth.lk ; asitha@fairhealth.lk 
CUST-45,FIRST STEPS,3260 WEST 5 AVE,VANCOUVER B.C. V6K 1V4,VANCOUVER ,,Elinor Han,Default Type,+604 732 0195,,susan.ritchie@firststepscanada.org; elinor.han@firstste
CUST-46,GLOBAL FOOD INDUSTRIES-SNACKING DIVISION,P.O.BOX 37550,PLOT NO. 56 AL-SAJJA INDUSTRIAL AREA,SHARJAH,SHARJAH,John DÃ¢â‚¬â„¢Souza,Default Type,+971 6 5360535 ,,john@global-food.ae
CUST-48,GOLD POWER CO LTD,NO.F/S 17 SHWE SABAI YEIKMOM ,CORNER OF BAYINT NAUNG RD AND SHWE ZALAT,KAMAYUT TOWNSHIPYANGON MYANMAR.,YANGON,Ms. Po Po,Default Type,+ 95 1 515129,,goldpower17cc@gmail.com
CUST-47,GRAND MILLS FOR FLOUR AND FEED CO.,P.O. BOX 46622,, ABU DHABI,ABU DHABI,Dr. Junaid Khan,Default Type,+971 6 7439401,,junaid@mudragtllc.com
CUST-49,HARLEY'S LIMITED,P.O.BOX 42718 - 00100,,,NAIROBI,Marcellus Ogutu,Default Type,+254 20 4261000,,imports@harleysltd.com; ambani@harleysltd.com
CUST-50,HIGH - Q PHARMACEUTICALS,,B Ã¢â‚¬â€œ 64 KARSAZ ROAD KDA-1,KARACHI,KARACHI,Imran Sattar,Default Type,+0092 21 4528152 53,,imran@biofarchemicals.com
CUST-51,INTERNATIONAL BISCUITS COMPANY,P.O. BOX 355858,RIYADH 11383,RIYADH,RIYADH,Abdul Mannan,Default Type,+00966 11 498 0800,,a.mannan@internationalbiscuits.com
CUST-52,JFK FOOD ADDITIVES LTD.,GO-DOWN NO.04 NORTH AIRPORT ROAD,EMBAKASL NAIROBI P.O.BOX 54505-00200,NAIROBI,NAIROBI,John Lundu Kahi  Kevin,Default Type,+0710 879 200 / 0722,,lundukahi@gmail.com; kevinfort75@gmail.com; 
CUST-80,KUWAIT FLOUR MILLS & BAKERIES CO.,P.O.BOX 681,SAFAT,KUWAIT CITY,,Dr. Junaid Khan,Default Type,+971 6 7439401,,junaid@mudragtllc.com
CUST-53,LABYRINTH SPECIALTIES HEALTHCARE LTD.,24 IJAOYE STREET,JIBOWU YABA.,LAGOS,LAGOS,Afolabi Osunkoya,Default Type,+00234 8034020278, 8,,afolabiosunkoya@labyrinthsh.com
CUST-54,LIPOMIC HEALTHCARE PVT. LTD.,B-57 (FIRST FLOOR) ,NARAIANA INDUSTRIAL ESTATEPHASE II,NEW DELHI,NEW DELHI,NARINDER SINGH SAHNI ,Default Type,+ 09811233785,, narinder@lipomichealthcare.com
CUST-43,M/S BAJABER MILLERS LIMITED,PO BOX 26109,,KAMPALA,KAMPALA,,Default Type,,,
CUST-55,MAVIGA ZA (PTY) LTD,125 HELEN JOSEPH RD,BULWER KWAZULU NATAL 4001,DURBAN,DURBAN,Sharon CronjÃƒÂ©,Default Type,+27 31 202 7174,,sharon@mavigaza.com
CUST-56,MEDETHIX INC,6TH FLOOR RFM CORPORATE CENTRE,PIONEER STREET MANDALUYONG CITY,MANDALUYONG CITY,,Camille C. Rivera,Default Type,+632 631 1561,,camille@medethix.com.ph
CUST-57,MINOLACS BURUNDI,B.P 165 BUJUMBURA,,BUJUMBURA,,Dr. Junaid Khan,Default Type,+971 6 7439401,,junaid@mudragtllc.com
CUST-58,MODERN OMAN BAKERY LLC,P.O. BOX 2448 PC 112 RUWI,SULTANATE OF OMAN,MUSCAT,MUSCAT,Dr. Junaid Khan,Default Type,+971 6 7439401,,junaid@mudragtllc.com
CUST-59,MOUNT MERU MILLERS (U) LTD,P.B. 709 LIRA,,LIRA,,Dr. Junaid Khan,Default Type,+971 6 7439401,,junaid@mudragtllc.com
CUST-60,MUDRA GENERAL TRADING L.L.C.,P.O. BOX 2130 AJMAN,,AJMAN,AJMAN,Dr. Junaid Khan,Default Type,+971 6 7439401,,junaid@mudragtllc.com
CUST-61,MUKONO INDUSTRIES LTD.,YUNGU MUKONO.,UGANDA. EAST AFRICA.,,,Dr. Junaid Khan,Default Type,+971 6 7439401,,junaid@mudragtllc.com
CUST-62,NILE AGRO INDUSTRIES LTD,PLOT 1-15 MIRO ROAD,P.O. BOX -996 JINJA-UGANDA,JINJA,,Dr. Junaid Khan,Default Type,+971 6 7439401,,junaid@mudragtllc.com
CUST-83,NOVOPHAR S.A,JUNCAL 1355/OF. 504,,MONTEVIDEO,,Margarita GarcÃƒÂ­a,Default Type,+291 5 0565 68,,mgarcia@novophar.com.uy,
CUST-44,OLAM INTERNATIONAL,PO BOX GP 1847,17 DADEBAN ROAD NORTH INDUSTRIAL AREA,ACCRA,ACCRA,Ms Gloria,Default Type,+233 244 327 799,,gloria.nsiah@olamnet.com
CUST-63,OMAN FLOUR MILLS CO. (S.A.O.G),P.O. BOX 566  RUWI - PC 112,,SOHAR,,Dr. Junaid Khan,Default Type,+971 6 7439401,,junaid@mudragtllc.com
CUST-65,OMANI EURO FOOD INDUSTRIES SAOG,P.O.BOX 23, JAWHARAT AL SHATTI,,,Dr. Junaid Khan,Default Type,+971 6 7439401,,junaid@mudragtllc.com
CUST-66,OOO PILMED,123007 ,MAGISTRALNAYA STREET NO.5,HOUSE 14 BUILDING 1.,MOSCOW,Gavin Ghandhi,Default Type,+ 495 940 70 91,,gavingandhi@gmail.com
CUST-64,OPSONIN PHARMA LIMITED,BAGURA ROAD,BARISAL,,,Dr. Junaid Khan,Default Type,+971 6 7439401,,junaid@mudragtllc.com
CUST-67,POLEN GIDA,AKCABURGAZ MAH,167 SOKAK NO. 15,ESENYURT-ISTANBUL 34510,ISTANBUL,ANI FINDIKOGLU,Default Type,+90 212 8862330 ,,ani@polengida.com
CUST-68,PT. DPO INDONESIA,WISMA RMK 3RD FLOOR,JL. PURI KENCANA BLOK M4 NO.1KEMBANGA,JAKARTA,,Mr. Edy Gunawan,Default Type,+61 21 582 6548,,edy.g@dpointernational.com
1213,qwerqw,qwerq,qer,werqwer,qwerq,,Default Type,,,
CUST-69,RAB PROCESSORS LIMITED,MASAUKO CHIPEMBERE HIGHWAY ,P.O.BOX 5338,LIMBE,LIMBE,Mada sibu / Chandrin,Default Type,+265 01 847 374,,ama@rabmw.com; gmp@rabmw.com
CUST-70,RESCO BISCUIT AND BREAD FACTORY PVT LTD,BSCIC INDUSTRIAL AREA,JHUMJHUMPUR,JESSORE - 7400,,Dr. Junaid Khan,Default Type,+971 6 7439401,,junaid@mudragtllc.com
CUST-71,SALALAH MILLS CO (S.A.O.G),P.O. BOX: 67 AL AWQADAIN,POSTAL CODE: 217,SALALAH,,Dr. Junaid Khan,Default Type,+971 6 7439401,,junaid@mudragtllc.com
CUST-85,SC KUK ROMANIA SRL,STR EMIL GARLEANU 11 BLOC C1(B),ETAJ 2 APART 7(2B4) RO-077190 VOLUNTARI,ILFOV,,Mona Cimpoia,Default Type,+400 21 310 44 65,,Mona.Cimpoia@kuk.com
CUST-72,SEVILLE PRODUCTS CO LLC,AN IFFCO GROUP COMPANY,364AL QUOZ INDUSTRIAL AREA,P O BOX 54176 DUBAI,DUBAI,Ms. Afroz Jahan Sayyed ,Default Type,+971 4 3467007,,asayyed@iffco.com
CUST-73,SOCIETE GENEREALS DES MOULINS DE TOGO,S.A. CAPITAL DE 5.640.000.000 CFA ZONE,INDUSTRIELLE DU PORT B.P. 9098,LOME R.C. 460,LOME,Mr. Ludovic Mourier,Default Type,+331 40 395561,,lmourier@somdiaa.com
CUST-81,TASCO INDUSTRIES LTD,PLOT 22 EDEN ROAD,P.O BOX 1832,JINJA ,,Dr. Junaid Khan,Default Type,+971 6 7439401,,junaid@mudragtllc.com
CUST-74,TRISHUL TRADE LINKS,MURLI,BIRGUNJ,,,Ms.Laxmi Mishra,Default Type,+977 1 4270008,,laxmi.mishra532@gmail.com
CUST-84,UNICEF DAKAR,BP 429 2 ,RUE CARNOT X SALVA,DAKAR,,Ms. Kara Chacksfield,Default Type,+44 20 8643 3311 ,,Kara.Chacksfield@crownagents.co.uk
CUST-75,VICTUS INTERNATIONAL,37-39 ABERDEEN ROAD,ALTONA VIC 3018,MELBOURNE,,Stefhan Fernando ,Default Type,+61 3 9315 0011,,sfernando@victus.com.au
CUST-76,VIMPEX LIMITED,NO: 200 ST. 150,SANGKAT TEUK LAAK II KHAN TOUL KOK,PHNOM PENH,,Thida Nget,Default Type,+855 23 885930 31,,ops.cam@vimpexltd.com
CUST-77,WFP AFGHANISTAN,STREET N4 KOSHANI WATT,P O BOX 1093,KABUL,KABUL,Mr. Ahmad Zahir Fahiz,Default Type,+ 930 706004959,,zahir.fahiz@wfp.org
CUST-78,WORLD VISION MONGOLIA,BAYANZURKH DISTRICT,1st KHOROOB BLOCK 5th FLOOR/C PO BOX 7,ULAANBAATAR 210613,ULAANBAATAR,Jonathan Jee  ,Default Type,+ 626-305-7839,,Jonathan_Jee@wvi.org
CUST-79,YEMEN COMPANY FOR FLOUR MILLS & SILOS,P.O BOX:-80044,MALLS STREET,ADEN,,Dr. Junaid Khan,Default Type,+971 6 7439401,,junaid@mudragtllc.com
